…
age_des_des <- raw_with_id_scores %>%
  group_by(age) %>%
  summarise(d_score_tot = sum(d_score))

age_stats <- left_join(age_joy_des, age_des_des)
  
#View(age_stats)
age_stats
```

    ## # A tibble: 147 x 3
    ##      age j_score_tot d_score_tot
    ##    <chr>       <int>       <int>
    ##  1    --          36          59
    ##  2   >39          31          27
    ##  3     0          39          53
    ##  4  0.62          44          51
    ##  5    10         262         192
    ##  6   100          64         101
    ##  7   108          42          53
    ##  8    11         390         307
    ##  9   115          33          46
    ## 10    12         571         585
    ## # ... with 137 more rows
…
